^C:\USERS\ICUSTOMIZE\DOCUMENTS\VISUAL STUDIO 2010\PROJECTS\TRAINCASCADENEW\TRAINCASCADENEW\STDAFX.CPP
C:\USERS\ICUSTOMIZE\DOCUMENTS\VISUAL STUDIO 2010\PROJECTS\TRAINCASCADENEW\TRAINCASCADENEW\RELEASE\TRAINCASCADENEW.PCH
C:\USERS\ICUSTOMIZE\DOCUMENTS\VISUAL STUDIO 2010\PROJECTS\TRAINCASCADENEW\TRAINCASCADENEW\RELEASE\STDAFX.OBJ
C:\USERS\ICUSTOMIZE\DOCUMENTS\VISUAL STUDIO 2010\PROJECTS\TRAINCASCADENEW\TRAINCASCADENEW\RELEASE\VC100.PDB
^C:\USERS\ICUSTOMIZE\DOCUMENTS\VISUAL STUDIO 2010\PROJECTS\TRAINCASCADENEW\TRAINCASCADENEW\BOOST.CPP|C:\USERS\ICUSTOMIZE\DOCUMENTS\VISUAL STUDIO 2010\PROJECTS\TRAINCASCADENEW\TRAINCASCADENEW\CASCADECLASSIFIER.CPP|C:\USERS\ICUSTOMIZE\DOCUMENTS\VISUAL STUDIO 2010\PROJECTS\TRAINCASCADENEW\TRAINCASCADENEW\FEATURES.CPP|C:\USERS\ICUSTOMIZE\DOCUMENTS\VISUAL STUDIO 2010\PROJECTS\TRAINCASCADENEW\TRAINCASCADENEW\HAARFEATURES.CPP|C:\USERS\ICUSTOMIZE\DOCUMENTS\VISUAL STUDIO 2010\PROJECTS\TRAINCASCADENEW\TRAINCASCADENEW\IMAGESTORAGE.CPP|C:\USERS\ICUSTOMIZE\DOCUMENTS\VISUAL STUDIO 2010\PROJECTS\TRAINCASCADENEW\TRAINCASCADENEW\LBPFEATURES.CPP|C:\USERS\ICUSTOMIZE\DOCUMENTS\VISUAL STUDIO 2010\PROJECTS\TRAINCASCADENEW\TRAINCASCADENEW\TRAINCASCADENEW.CPP
C:\USERS\ICUSTOMIZE\DOCUMENTS\VISUAL STUDIO 2010\PROJECTS\TRAINCASCADENEW\TRAINCASCADENEW\RELEASE\TRAINCASCADENEW.OBJ
C:\USERS\ICUSTOMIZE\DOCUMENTS\VISUAL STUDIO 2010\PROJECTS\TRAINCASCADENEW\TRAINCASCADENEW\RELEASE\LBPFEATURES.OBJ
C:\USERS\ICUSTOMIZE\DOCUMENTS\VISUAL STUDIO 2010\PROJECTS\TRAINCASCADENEW\TRAINCASCADENEW\RELEASE\IMAGESTORAGE.OBJ
C:\USERS\ICUSTOMIZE\DOCUMENTS\VISUAL STUDIO 2010\PROJECTS\TRAINCASCADENEW\TRAINCASCADENEW\RELEASE\HAARFEATURES.OBJ
C:\USERS\ICUSTOMIZE\DOCUMENTS\VISUAL STUDIO 2010\PROJECTS\TRAINCASCADENEW\TRAINCASCADENEW\RELEASE\FEATURES.OBJ
C:\USERS\ICUSTOMIZE\DOCUMENTS\VISUAL STUDIO 2010\PROJECTS\TRAINCASCADENEW\TRAINCASCADENEW\RELEASE\CASCADECLASSIFIER.OBJ
C:\USERS\ICUSTOMIZE\DOCUMENTS\VISUAL STUDIO 2010\PROJECTS\TRAINCASCADENEW\TRAINCASCADENEW\RELEASE\BOOST.OBJ
^C:\USERS\ICUSTOMIZE\DOCUMENTS\VISUAL STUDIO 2010\PROJECTS\TRAINCASCADENEW\TRAINCASCADENEW\BOOST.CPP
C:\USERS\ICUSTOMIZE\DOCUMENTS\VISUAL STUDIO 2010\PROJECTS\TRAINCASCADENEW\TRAINCASCADENEW\RELEASE\VC100.PDB
^C:\USERS\ICUSTOMIZE\DOCUMENTS\VISUAL STUDIO 2010\PROJECTS\TRAINCASCADENEW\TRAINCASCADENEW\CASCADECLASSIFIER.CPP
C:\USERS\ICUSTOMIZE\DOCUMENTS\VISUAL STUDIO 2010\PROJECTS\TRAINCASCADENEW\TRAINCASCADENEW\RELEASE\VC100.PDB
^C:\USERS\ICUSTOMIZE\DOCUMENTS\VISUAL STUDIO 2010\PROJECTS\TRAINCASCADENEW\TRAINCASCADENEW\FEATURES.CPP
C:\USERS\ICUSTOMIZE\DOCUMENTS\VISUAL STUDIO 2010\PROJECTS\TRAINCASCADENEW\TRAINCASCADENEW\RELEASE\VC100.PDB
^C:\USERS\ICUSTOMIZE\DOCUMENTS\VISUAL STUDIO 2010\PROJECTS\TRAINCASCADENEW\TRAINCASCADENEW\HAARFEATURES.CPP
C:\USERS\ICUSTOMIZE\DOCUMENTS\VISUAL STUDIO 2010\PROJECTS\TRAINCASCADENEW\TRAINCASCADENEW\RELEASE\VC100.PDB
^C:\USERS\ICUSTOMIZE\DOCUMENTS\VISUAL STUDIO 2010\PROJECTS\TRAINCASCADENEW\TRAINCASCADENEW\IMAGESTORAGE.CPP
C:\USERS\ICUSTOMIZE\DOCUMENTS\VISUAL STUDIO 2010\PROJECTS\TRAINCASCADENEW\TRAINCASCADENEW\RELEASE\VC100.PDB
^C:\USERS\ICUSTOMIZE\DOCUMENTS\VISUAL STUDIO 2010\PROJECTS\TRAINCASCADENEW\TRAINCASCADENEW\LBPFEATURES.CPP
C:\USERS\ICUSTOMIZE\DOCUMENTS\VISUAL STUDIO 2010\PROJECTS\TRAINCASCADENEW\TRAINCASCADENEW\RELEASE\VC100.PDB
^C:\USERS\ICUSTOMIZE\DOCUMENTS\VISUAL STUDIO 2010\PROJECTS\TRAINCASCADENEW\TRAINCASCADENEW\TRAINCASCADENEW.CPP
C:\USERS\ICUSTOMIZE\DOCUMENTS\VISUAL STUDIO 2010\PROJECTS\TRAINCASCADENEW\TRAINCASCADENEW\RELEASE\VC100.PDB
