^C:\USERS\ICUSTOMIZE\DOCUMENTS\VISUAL STUDIO 2010\PROJECTS\TRAINCASCADENEW\TRAINCASCADENEW\RELEASE\BOOST.OBJ|C:\USERS\ICUSTOMIZE\DOCUMENTS\VISUAL STUDIO 2010\PROJECTS\TRAINCASCADENEW\TRAINCASCADENEW\RELEASE\CASCADECLASSIFIER.OBJ|C:\USERS\ICUSTOMIZE\DOCUMENTS\VISUAL STUDIO 2010\PROJECTS\TRAINCASCADENEW\TRAINCASCADENEW\RELEASE\FEATURES.OBJ|C:\USERS\ICUSTOMIZE\DOCUMENTS\VISUAL STUDIO 2010\PROJECTS\TRAINCASCADENEW\TRAINCASCADENEW\RELEASE\HAARFEATURES.OBJ|C:\USERS\ICUSTOMIZE\DOCUMENTS\VISUAL STUDIO 2010\PROJECTS\TRAINCASCADENEW\TRAINCASCADENEW\RELEASE\IMAGESTORAGE.OBJ|C:\USERS\ICUSTOMIZE\DOCUMENTS\VISUAL STUDIO 2010\PROJECTS\TRAINCASCADENEW\TRAINCASCADENEW\RELEASE\LBPFEATURES.OBJ|C:\USERS\ICUSTOMIZE\DOCUMENTS\VISUAL STUDIO 2010\PROJECTS\TRAINCASCADENEW\TRAINCASCADENEW\RELEASE\STDAFX.OBJ|C:\USERS\ICUSTOMIZE\DOCUMENTS\VISUAL STUDIO 2010\PROJECTS\TRAINCASCADENEW\TRAINCASCADENEW\RELEASE\TRAINCASCADENEW.OBJ
C:\USERS\ICUSTOMIZE\DOCUMENTS\VISUAL STUDIO 2010\PROJECTS\TRAINCASCADENEW\RELEASE\TRAINCASCADENEW.EXE
C:\USERS\ICUSTOMIZE\DOCUMENTS\VISUAL STUDIO 2010\PROJECTS\TRAINCASCADENEW\TRAINCASCADENEW\RELEASE\TRAINCASCADENEW.EXE.INTERMEDIATE.MANIFEST
C:\USERS\ICUSTOMIZE\DOCUMENTS\VISUAL STUDIO 2010\PROJECTS\TRAINCASCADENEW\RELEASE\TRAINCASCADENEW.PDB
