^C:\USERS\ICUSTOMIZE\DOCUMENTS\VISUAL STUDIO 2010\PROJECTS\TRAINCASCADENEW\TRAINCASCADENEW\STDAFX.CPP
/c /Zi /nologo /W3 /WX- /O2 /Oi /Oy- /GL /D WIN32 /D NDEBUG /D _CONSOLE /D _UNICODE /D UNICODE /Gm- /EHsc /MD /GS /Gy /fp:precise /Zc:wchar_t /Zc:forScope /Yc"StdAfx.h" /Fp"Debug\TrainCascadeNew.pch" /Fo"Debug\\" /Fd"Debug\vc100.pdb" /Gd /TP /analyze- /errorReport:prompt C:\USERS\ICUSTOMIZE\DOCUMENTS\VISUAL STUDIO 2010\PROJECTS\TRAINCASCADENEW\TRAINCASCADENEW\STDAFX.CPP
^C:\USERS\ICUSTOMIZE\DOCUMENTS\VISUAL STUDIO 2010\PROJECTS\TRAINCASCADENEW\TRAINCASCADENEW\TRAINCASCADENEW.CPP
/c /Zi /nologo /W3 /WX- /O2 /Oi /Oy- /GL /D WIN32 /D NDEBUG /D _CONSOLE /D _UNICODE /D UNICODE /Gm- /EHsc /MD /GS /Gy /fp:precise /Zc:wchar_t /Zc:forScope /Yu"StdAfx.h" /Fp"Debug\TrainCascadeNew.pch" /Fo"Debug\\" /Fd"Debug\vc100.pdb" /Gd /TP /analyze- /errorReport:prompt C:\USERS\ICUSTOMIZE\DOCUMENTS\VISUAL STUDIO 2010\PROJECTS\TRAINCASCADENEW\TRAINCASCADENEW\TRAINCASCADENEW.CPP
^C:\USERS\ICUSTOMIZE\DOCUMENTS\VISUAL STUDIO 2010\PROJECTS\TRAINCASCADENEW\TRAINCASCADENEW\BOOST.CPP
/c /Zi /nologo /W3 /WX- /O2 /Oi /Oy- /GL /D WIN32 /D NDEBUG /D _CONSOLE /D _UNICODE /D UNICODE /Gm- /EHsc /MD /GS /Gy /fp:precise /Zc:wchar_t /Zc:forScope /Yu"StdAfx.h" /Fp"Debug\TrainCascadeNew.pch" /Fo"Debug\\" /Fd"Debug\vc100.pdb" /Gd /TP /analyze- /errorReport:prompt C:\USERS\ICUSTOMIZE\DOCUMENTS\VISUAL STUDIO 2010\PROJECTS\TRAINCASCADENEW\TRAINCASCADENEW\BOOST.CPP
^C:\USERS\ICUSTOMIZE\DOCUMENTS\VISUAL STUDIO 2010\PROJECTS\TRAINCASCADENEW\TRAINCASCADENEW\CASCADECLASSIFIER.CPP
/c /Zi /nologo /W3 /WX- /O2 /Oi /Oy- /GL /D WIN32 /D NDEBUG /D _CONSOLE /D _UNICODE /D UNICODE /Gm- /EHsc /MD /GS /Gy /fp:precise /Zc:wchar_t /Zc:forScope /Yu"StdAfx.h" /Fp"Debug\TrainCascadeNew.pch" /Fo"Debug\\" /Fd"Debug\vc100.pdb" /Gd /TP /analyze- /errorReport:prompt C:\USERS\ICUSTOMIZE\DOCUMENTS\VISUAL STUDIO 2010\PROJECTS\TRAINCASCADENEW\TRAINCASCADENEW\CASCADECLASSIFIER.CPP
^C:\USERS\ICUSTOMIZE\DOCUMENTS\VISUAL STUDIO 2010\PROJECTS\TRAINCASCADENEW\TRAINCASCADENEW\FEATURES.CPP
/c /Zi /nologo /W3 /WX- /O2 /Oi /Oy- /GL /D WIN32 /D NDEBUG /D _CONSOLE /D _UNICODE /D UNICODE /Gm- /EHsc /MD /GS /Gy /fp:precise /Zc:wchar_t /Zc:forScope /Yu"StdAfx.h" /Fp"Debug\TrainCascadeNew.pch" /Fo"Debug\\" /Fd"Debug\vc100.pdb" /Gd /TP /analyze- /errorReport:prompt C:\USERS\ICUSTOMIZE\DOCUMENTS\VISUAL STUDIO 2010\PROJECTS\TRAINCASCADENEW\TRAINCASCADENEW\FEATURES.CPP
^C:\USERS\ICUSTOMIZE\DOCUMENTS\VISUAL STUDIO 2010\PROJECTS\TRAINCASCADENEW\TRAINCASCADENEW\HAARFEATURES.CPP
/c /Zi /nologo /W3 /WX- /O2 /Oi /Oy- /GL /D WIN32 /D NDEBUG /D _CONSOLE /D _UNICODE /D UNICODE /Gm- /EHsc /MD /GS /Gy /fp:precise /Zc:wchar_t /Zc:forScope /Yu"StdAfx.h" /Fp"Debug\TrainCascadeNew.pch" /Fo"Debug\\" /Fd"Debug\vc100.pdb" /Gd /TP /analyze- /errorReport:prompt C:\USERS\ICUSTOMIZE\DOCUMENTS\VISUAL STUDIO 2010\PROJECTS\TRAINCASCADENEW\TRAINCASCADENEW\HAARFEATURES.CPP
^C:\USERS\ICUSTOMIZE\DOCUMENTS\VISUAL STUDIO 2010\PROJECTS\TRAINCASCADENEW\TRAINCASCADENEW\IMAGESTORAGE.CPP
/c /Zi /nologo /W3 /WX- /O2 /Oi /Oy- /GL /D WIN32 /D NDEBUG /D _CONSOLE /D _UNICODE /D UNICODE /Gm- /EHsc /MD /GS /Gy /fp:precise /Zc:wchar_t /Zc:forScope /Yu"StdAfx.h" /Fp"Debug\TrainCascadeNew.pch" /Fo"Debug\\" /Fd"Debug\vc100.pdb" /Gd /TP /analyze- /errorReport:prompt C:\USERS\ICUSTOMIZE\DOCUMENTS\VISUAL STUDIO 2010\PROJECTS\TRAINCASCADENEW\TRAINCASCADENEW\IMAGESTORAGE.CPP
^C:\USERS\ICUSTOMIZE\DOCUMENTS\VISUAL STUDIO 2010\PROJECTS\TRAINCASCADENEW\TRAINCASCADENEW\LBPFEATURES.CPP
/c /Zi /nologo /W3 /WX- /O2 /Oi /Oy- /GL /D WIN32 /D NDEBUG /D _CONSOLE /D _UNICODE /D UNICODE /Gm- /EHsc /MD /GS /Gy /fp:precise /Zc:wchar_t /Zc:forScope /Yu"StdAfx.h" /Fp"Debug\TrainCascadeNew.pch" /Fo"Debug\\" /Fd"Debug\vc100.pdb" /Gd /TP /analyze- /errorReport:prompt C:\USERS\ICUSTOMIZE\DOCUMENTS\VISUAL STUDIO 2010\PROJECTS\TRAINCASCADENEW\TRAINCASCADENEW\LBPFEATURES.CPP
